Game\Game$1.class
Game\Structures\Structure$State.class
Game\Player\MachinePlayer$1.class
Game\Mouse$1.class
Game\Player\Player.class
Game\Units\Unit$Action.class
Game\Player\ResourceManager.class
Game\Coords.class
Game\Player\MachinePlayer.class
Game\Units\Unit$1.class
Game\Mouse$2.class
Game\Terrain\Planet.class
Game\Units\Hauler.class
Game\Structures\Station.class
Game\Structures\MoonBase$1.class
Game\Terrain\Terrain.class
Game\Units\FighterWing.class
Game\Terrain\Moon.class
Game\Units\Destroyer.class
Game\Units\AssaultShip.class
Game\Structures\MoonBase.class
Game\Structures\PlanetBase$1.class
Game\Structures\PlanetBase.class
